<svg width="83" height="60" viewBox="0 0 83 60" fill="none" xmlns="http://www.w3.org/2000/svg">
<path fill-rule="evenodd" clip-rule="evenodd" d="M52.9403 31.5247V20.8103H40.3686L36.3861 40.1533H75.4049L68.0833 31.5247H52.9403ZM49.8192 34.6458V23.9311H42.9124L40.7135 34.6458H49.8192Z" fill="#FEDB00"/>
<path fill-rule="evenodd" clip-rule="evenodd" d="M36.8629 47.5163H76.2648C79.6979 47.5163 82.5067 50.325 82.5067 53.7582C82.5067 57.1913 79.6979 60 76.2648 60H36.8629C33.4297 60 30.621 57.1913 30.621 53.7582C30.621 50.325 33.4297 47.5163 36.8629 47.5163ZM76.2648 50.4423C78.0961 50.4423 79.5807 51.9268 79.5807 53.7582C79.5807 55.5895 78.0961 57.0741 76.2648 57.0741C74.4334 57.0741 72.9489 55.5895 72.9489 53.7582C72.9489 51.9268 74.4334 50.4423 76.2648 50.4423ZM66.3353 50.4423C68.1666 50.4423 69.6514 51.9268 69.6514 53.7582C69.6514 55.5895 68.1666 57.0741 66.3353 57.0741C64.5039 57.0741 63.0193 55.5895 63.0193 53.7582C63.0193 51.9268 64.5039 50.4423 66.3353 50.4423ZM56.4058 50.4423C58.2373 50.4423 59.7219 51.9268 59.7219 53.7582C59.7219 55.5895 58.2373 57.0741 56.4058 57.0741C54.5744 57.0741 53.0898 55.5895 53.0898 53.7582C53.0898 51.9268 54.5744 50.4423 56.4058 50.4423ZM46.4764 50.4423C48.3078 50.4423 49.7924 51.9268 49.7924 53.7582C49.7924 55.5895 48.3078 57.0741 46.4764 57.0741C44.6451 57.0741 43.1605 55.5895 43.1605 53.7582C43.1605 51.9268 44.6451 50.4423 46.4764 50.4423ZM36.5469 50.4423C38.3783 50.4423 39.8629 51.9268 39.8629 53.7582C39.8629 55.5895 38.3783 57.0741 36.5469 57.0741C34.7156 57.0741 33.231 55.5895 33.231 53.7582C33.231 51.9268 34.7156 50.4423 36.5469 50.4423Z" fill="#FEDB00"/>
<path fill-rule="evenodd" clip-rule="evenodd" d="M20.7553 0.681418C23.354 2.22062 24.3713 7.24589 22.8691 9.79974L12.8124 26.8959C12.3391 27.7006 12.1209 28.5012 12.1209 29.4347V33.8818C12.1209 35.7809 10.3787 37.3349 8.47955 37.3349C6.58024 37.3349 5.02639 35.7811 5.02639 33.8818V28.8628C5.02639 28.3122 5.10081 27.8419 5.27058 27.3181L12.9561 3.62125C13.9591 0.528203 17.9635 -0.971977 20.7553 0.681418ZM18.0667 3.52742C19.3803 3.52742 20.4452 4.59232 20.4452 5.90597C20.4452 7.21963 19.3803 8.28452 18.0667 8.28452C16.753 8.28452 15.6881 7.21963 15.6881 5.90597C15.6881 4.59232 16.753 3.52742 18.0667 3.52742Z" fill="#FEDB00"/>
<path fill-rule="evenodd" clip-rule="evenodd" d="M6.75994 58.5874C3.04223 58.5872 0 55.5453 0 51.8272V50.8257C0 47.1076 3.04204 44.0656 6.75994 44.0656H13.5203V48.4706C13.5203 49.9915 14.2441 51.1767 15.2846 52.2859L21.1965 58.5877L6.75994 58.5874Z" fill="#FEDB00"/>
<path d="M22.0476 58.5877C23.0648 58.5877 23.8893 57.7632 23.8893 56.7461C23.8893 55.729 23.0648 54.9043 22.0476 54.9043H15.4525C14.4354 54.9043 13.6109 55.729 13.6109 56.7461C13.6109 57.7632 14.4354 58.5877 15.4525 58.5877H22.0476Z" fill="#FEDB00"/>
<path fill-rule="evenodd" clip-rule="evenodd" d="M6.38445 36.6217V42.6026C6.50892 42.5958 6.63397 42.5924 6.75997 42.5924H10.931L10.9312 36.3939C10.2672 36.9765 9.39147 37.3349 8.4796 37.3349C7.69354 37.3349 6.96648 37.0686 6.38445 36.6217Z" fill="#FEDB00"/>
<path fill-rule="evenodd" clip-rule="evenodd" d="M21.4841 15.06C26.205 16.8853 33.8534 20.6553 37.6025 26.9393L39.1676 19.3369H42.4076C39.0275 14.4047 31.6873 10.509 24.8953 8.44775C24.752 9.21364 24.5025 9.92852 24.139 10.5467L21.4841 15.06Z" fill="#FEDB00"/>
<path fill-rule="evenodd" clip-rule="evenodd" d="M70.8033 41.6268H41.9344V46.043H70.8033V41.6268Z" fill="#FEDB00"/>
</svg>
